{
  "IsRegenerate": true,
  "MenuPosition": "main",
  "RelativeNamespace": "Payroll",
  "EntityName": "Ranks",
  "EntityNamePlural": "Ranks",
  "TableName": "Ranks",
  "PrimaryKeyType": "string",
  "BaseClass": "Entity",
  "EntityHistory": false,
  "AutoMigration": true,
  "UpdateDatabase": true,
  "CreateUserInterface": true,
  "CreateViewOnly": true,
  "CreateExcelExport": true,
  "IsNonModalCRUDPage": false,
  "IsMasterDetailPage": false,
  "PagePermission": {
    "Host": true,
    "Tenant": true
  },
  "Properties": [
    {
      "Name": "Description",
      "Type": "string",
      "MaxLength": 50,
      "MinLength": 0,
      "Range": {
        "IsRangeSet": false,
        "MinimumValue": 0.0,
        "MaximumValue": 0.0
      },
      "Required": true,
      "Nullable": false,
      "Regex": "",
      "UserInterface": {
        "AdvancedFilter": true,
        "List": true,
        "CreateOrUpdate": true
      }
    }
  ],
  "NavigationProperties": [],
  "NavigationPropertyOneToManyTables": [],
  "EnumDefinitions": [],
  "DbContext": null
}